{
    "Users":[
        {
            "username":"Amit",
            "name": "Amit Sahoo",
            "password":"P@ssw0rd"
        },
        {
            "username":"Rahul",
            "name": "Rahul Kumar",
            "password":"P@ssw0rd"
        },
        {
            "username":"Suresh",
            "name": "Suresh Vasu",
            "password":"P@ssw0rd"
        }
    ],
    "Circles": [
        {
            "CircleId":1,
            "CircleName":"Circle1"
        },
        {
            "CircleId":2,
            "CircleName":"Circle2"
        },
        {
            "CircleId":3,
            "CircleName":"Circle3"
        }
    ]
}